Review Assignment 3
…
```r
corn_price_long %>%
pivot_wider(
  # - a list of column tha uniquely identifies each observation - #
  id_cols = county_code, 
  # - new column names - #
  names_from = month, 
  # - values of the new columns -#
  values_from = price
)
```

```
## # A tibble: 50 × 13
##    county_code   `1`   `2`   `3`   `4`   `5`   `6`   `7`   `8`   `9`  `10`  `11`
##          <int> <dbl> <dbl> <dbl> <dbl> <dbl> <dbl> <dbl> <dbl> <dbl> <dbl> <dbl>
##  1           1  4.22  4.23  3.51  5.05  4.24  3.70  3.16  4.10  3.31  5.96  4.61
##  2           2  2.21  4.38  2.90  5.24  3.36  5.89  3.91  3.20  3.32  3.23  5.63
##  3           3  3.32  4.61  4.05  4.66  5.96  2.21  2.67  4.40  2.50  5.86  4.35
##  4           4  4.23  3.30  5.23  4.95  5.02  2.25  2.57  5.76  2.89  3.03  2.31
##  5           5  5.03  4.99  2.28  4.46  5.95  3.38  5.05  2.27  4.41  4.25  5.56
##  6           6  2.96  3.01  4.56  3.94  2.72  5.97  5.90  4.35  4.44  3.71  3.15
##  7           7  5.93  3.62  3.61  3.44  4.01  4.62  3.13  4.15  2.73  5.67  4.35
##  8           8  5.49  3.30  3.26  3.65  5.59  4.06  4.51  3.41  4.94  3.77  2.90
##  9           9  2.10  4.66  4.54  4.08  4.34  3.49  4.83  4.25  5.25  5.03  4.84
## 10          10  3.99  4.67  2.46  2.46  2.37  4.69  3.22  4.88  5.88  5.51  4.50
## # … with 40 more rows, and 1 more variable: `12` <dbl>
```
…
